Procesando datos censales en R
…
esto realizo cada vez que use R

library(arcenso)
library(tidyverse)
library(gt)

Importo datos con la función get_census()

estructura_pba_1970 <- get_census(year = 1970, 
                              topic = "ESTRUCTURA DE POBLACION", 
                              geolvl = "Provincia de Buenos Aires")

estructura_pba_1970
#> $c70_buenosaires_poblacion_c1
#> # A tibble: 162 × 4
#>    sexo  grupo_de_edad lugar_nacimiento         poblacion
#>    <chr> <chr>         <chr>                    <chr>    
#>  1 Total 0-4           Total                    833150   
#>  2 Total 0-4           Nacidos en el país       827450   
#>  3 Total 0-4           Nacidos en el extranjero 5700     
#>  4 Total 5-9           Total                    791450   
#>  5 Total 5-9           Nacidos en el país       782700   
#>  6 Total 5-9           Nacidos en el extranjero 8750     
#>  7 Total 10-14         Total                    759500   
#>  8 Total 10-14         Nacidos en el país       746150   
#>  9 Total 10-14         Nacidos en el extranjero 13350    
#> 10 Total 15-19         Total                    743300   
#> # ℹ 152 more rows
…
str(estructura_pba_1970)
#> List of 1
#>  $ c70_buenosaires_poblacion_c1: tibble [162 × 4] (S3: tbl_df/tbl/data.frame)
#>   ..$ sexo            : chr [1:162] "Total" "Total" "Total" "Total" ...
#>   ..$ grupo_de_edad   : chr [1:162] "0-4" "0-4" "0-4" "5-9" ...
#>   ..$ lugar_nacimiento: chr [1:162] "Total" "Nacidos en el país" "Nacidos en el extranjero" "Total" ...
#>   ..$ poblacion       : chr [1:162] "833150" "827450" "5700" "791450" ...

Elijo la tabla a trabajar como DataFrame

estructura_pba_1970 <- estructura_pba_1970[[1]]

estructura_pba_1970
#> # A tibble: 162 × 4
#>    sexo  grupo_de_edad lugar_nacimiento         poblacion
#>    <chr> <chr>         <chr>                    <chr>    
#>  1 Total 0-4           Total                    833150   
#>  2 Total 0-4           Nacidos en el país       827450   
#>  3 Total 0-4           Nacidos en el extranjero 5700     
#>  4 Total 5-9           Total                    791450   
#>  5 Total 5-9           Nacidos en el país       782700   
#>  6 Total 5-9           Nacidos en el extranjero 8750     
#>  7 Total 10-14         Total                    759500   
#>  8 Total 10-14         Nacidos en el país       746150   
#>  9 Total 10-14         Nacidos en el extranjero 13350    
#> 10 Total 15-19         Total                    743300   
#> # ℹ 152 more rows
…
